%YAML 1.1
%TAG !u! tag:unity3d.com,2011:
--- !u!114 &11400000
MonoBehaviour:
  m_ObjectHideFlags: 0
  m_CorrespondingSourceObject: {fileID: 0}
  m_PrefabInstance: {fileID: 0}
  m_PrefabAsset: {fileID: 0}
  m_GameObject: {fileID: 0}
  m_Enabled: 1
  m_EditorHideFlags: 0
  m_Script: {fileID: 11500000, guid: 468a46d0ae32c3544b7d98094e6448a9, type: 3}
  m_Name: AddressableAssetSettings
  m_EditorClassIdentifier: 
  m_DefaultGroup: af7ba3dd991e9da44aad739921f36b12
  m_OptimizeCatalogSize: 0
  m_BuildRemoteCatalog: 0
  m_BundleLocalCatalog: 0
  m_DisableCatalogUpdateOnStart: 0
  m_IgnoreUnsupportedFilesInBuild: 0
  m_UniqueBundleIds: 0
  m_maxConcurrentWebRequests: 500
  m_ContiguousBundles: 0
  m_RemoteCatalogBuildPath:
    m_Id: 
  m_RemoteCatalogLoadPath:
    m_Id: 
  m_overridePlayerVersion: 
  m_GroupAssets:
  - {fileID: 11400000, guid: 8b1f6ef76d3211d49ad9f76b0d033087, type: 2}
  - {fileID: 11400000, guid: 52c73319e00667f41ba82702a57dea3d, type: 2}
  m_BuildSettings:
    m_CompileScriptsInVirtualMode: 0
    m_CleanupStreamingAssetsAfterBuilds: 1
    m_LogResourceManagerExceptions: 1
    m_BundleBuildPath: Temp/com.unity.addressables/AssetBundles
  m_ProfileSettings:
    m_Profiles:
    - m_InheritedParent: 
      m_Id: 614ff2e20a7a6794d9e63ff50f69f4cd
      m_ProfileName: Default
      m_Values:
      - m_Id: a30ccb9cde582d54182fe5026b1d24ad
        m_Value: '[UnityEditor.EditorUserBuildSettings.activeBuildTarget]'
      - m_Id: e48d825db4bce6c4892eae8568c6e4d2
        m_Value: '[UnityEngine.AddressableAssets.Addressables.BuildPath]/[BuildTarget]'
      - m_Id: bc60778334267574ba3e6919b5e11a56
        m_Value: '{UnityEngine.AddressableAssets.Addressables.RuntimePath}/[BuildTarget]'
      - m_Id: 0da91f6a45367f547a31ca1532ae9759
        m_Value: ServerData/[BuildTarget]
      - m_Id: 02eb01ca6d06c9046bbd0e970c047e44
        m_Value: http://localhost/[BuildTarget]
    m_ProfileEntryNames:
    - m_Id: a30ccb9cde582d54182fe5026b1d24ad
      m_Name: BuildTarget
      m_InlineUsage: 0
    - m_Id: e48d825db4bce6c4892eae8568c6e4d2
      m_Name: LocalBuildPath
      m_InlineUsage: 0
    - m_Id: bc60778334267574ba3e6919b5e11a56
      m_Name: LocalLoadPath
      m_InlineUsage: 0
    - m_Id: 0da91f6a45367f547a31ca1532ae9759
      m_Name: RemoteBuildPath
      m_InlineUsage: 0
    - m_Id: 02eb01ca6d06c9046bbd0e970c047e44
      m_Name: RemoteLoadPath
      m_InlineUsage: 0
    m_ProfileVersion: 1
  m_LabelTable:
    m_LabelNames:
    - default
    - testLabel
  m_SchemaTemplates: []
  m_GroupTemplateObjects:
  - {fileID: 11400000, guid: 4971403be0102bb4dbbb2ff7d6d9caf2, type: 2}
  m_InitializationObjects: []
  m_CertificateHandlerType:
    m_AssemblyName: 
    m_ClassName: 
  m_ActivePlayerDataBuilderIndex: 3
  m_DataBuilders:
  - {fileID: 11400000, guid: df94631de8440e0408b5e4623a06c499, type: 2}
  - {fileID: 11400000, guid: 1b6584a168860ba48b1dcf35170b05ba, type: 2}
  - {fileID: 11400000, guid: 873584b735c81ee46be0ee443137851f, type: 2}
  - {fileID: 11400000, guid: 59f896ee4306dfc4681f925e986b9855, type: 2}
  m_ActiveProfileId: 614ff2e20a7a6794d9e63ff50f69f4cd
  m_HostingServicesManager:
    m_HostingServiceInfos: []
    m_Settings: {fileID: 11400000}
    m_NextInstanceId: 0
    m_RegisteredServiceTypeRefs: []
